<?xml version="1.0" encoding="UTF-8" standalone="no"?>
<svg
   xmlns:dc="http://purl.org/dc/elements/1.1/"
   xmlns:cc="http://creativecommons.org/ns#"
   xmlns:rdf="http://www.w3.org/1999/02/22-rdf-syntax-ns#"
   xmlns:svg="http://www.w3.org/2000/svg"
   xmlns="http://www.w3.org/2000/svg"
   height="35.920876"
   width="14.12445"
   id="svg9"
   data-id="034dca09dfa04e859d60e4c35ba1dce8"
   class="ng-element"
   style="overflow:visible;opacity:1;mix-blend-mode:normal"
   preserveAspectRatio="none"
   version="1.2">
  <metadata
     id="metadata13">
    <rdf:RDF>
      <cc:Work
         rdf:about="">
        <dc:format>image/svg+xml</dc:format>
        <dc:type
           rdf:resource="http://purl.org/dc/dcmitype/StillImage" />
        <dc:title></dc:title>
      </cc:Work>
    </rdf:RDF>
  </metadata>
  <defs
     id="defs3">
    <path
       d="m 55.520833,994.95837 c 0,0.75548 -13,18.13133 -13,18.13133 0,0 13,17.3759 13,17.3759"
       id="path-159077203871850" />
  </defs>
  <g
     id="g7"
     transform="translate(-41.896384,-994.84427)">
    <path
       id="path5"
       d="m 55.520833,994.95837 c 0,0.75548 -13,18.13133 -13,18.13133 0,0 13,17.3759 13,17.3759"
       style="fill:none;stroke:#ffffff;stroke-width:1px;stroke-linecap:butt;stroke-linejoin:miter" />
  </g>
</svg>
